﻿[00:11.26]Knew he was a killer
[00:12.76]First time that I saw him
[00:14.35]Wonder how many girls he had loved and left haunted
[00:17.31]But if he's a ghost, then
[00:18.94]I can be a phantom
[00:20.35]Holdin' him for ransom, some
[00:22.94]Some boys are tryin' too hard,
[00:24.82]He don't try at all though
[00:26.36]Younger than my exes,
[00:27.78]But he act like such a man, so
[00:29.45]I see nothing better,
[00:30.86]I keep him forever
[00:32.36]Like a vendetta-ta
[00:34.91]I, i, I see how this is gon' go
[00:38.62]Touch me
[00:39.58]And you'll never be alone
[00:41.12]I-island breeze
[00:42.79]And lights down low
[00:44.00]No one has to know
[00:46.17]
[00:46.84]In the middle of the night
[00:49.05]In my dreams
[00:50.80]
[00:52.51]You should see the things we do
[00:55.10]Baby
[00:57.02]
[00:58.85]In the middle of the night,
[01:01.06]In my dreams
[01:02.81]
[01:04.23]I know I'm gonna be with you
[01:06.44]So I take my time
[01:10.53]
[01:10.99]Are you ready for it?
[01:12.10]
[01:17.58]Knew I was a robber
[01:18.91]First time that he saw me
[01:20.33]Stealing hearts and running off
[01:21.87]And never sayin' sorry
[01:23.42]But if I'm a thief,
[01:24.50]Then he can join the heist, and
[01:26.34]We'll move to an island, and
[01:28.96]And he can be my jailer
[01:31.01]Burton to this taylor
[01:32.42]Every love I've known in comparison is a failure
[01:35.34]I forget their names now
[01:36.97]I'm so very tame now
[01:38.52]Never be the same now, now
[01:41.10]I, i, I see how this is gon' go
[01:44.52]
[01:44.85]Touch me
[01:45.81]And you'll never be alone
[01:46.98]I-island breeze
[01:48.73]And lights down low
[01:50.28]No one has to know
[01:52.40]
[01:53.15]In the middle of the night
[01:55.16]In my dreams
[01:56.78]
[01:58.49]You should see the things we do
[02:01.12]Baby
[02:02.87]
[02:04.96]In the middle of the night
[02:07.13]In my dreams
[02:08.88]
[02:10.34]I know I'm gonna be with you
[02:12.42]So I take my time
[02:16.55]
[02:16.97]Are you ready for it?
[02:18.05]
[02:23.06]Are you ready for it?
[02:24.27]Baby, let the games begin
[02:26.19]Let the games begin
[02:27.44]
[02:27.77]Let the games begin
[02:29.44]
[02:30.40]Baby, let the games begin
[02:32.48]Let the games begin
[02:33.61]
[02:33.90]Let the games begin
[02:35.03]I, i, I see how this is gon' go
[02:38.45]
[02:38.82]Touch me
[02:39.78]And you'll never be alone
[02:41.04]I-island breeze
[02:42.74]And lights down low
[02:44.16]No one has to know
[02:45.100]
[02:48.67]In the middle of the night
[02:50.75]In my dreams
[02:52.09]
[02:54.09]You should see the things we do
[02:56.72]Baby
[02:58.47]
[03:00.39]In the middle of the night
[03:02.76]In my dreams
[03:04.73]
[03:06.02]I know I'm gonna be with you
[03:08.10]So I take my time
[03:12.44]In the middle of the night
[03:13.86]Baby, let the games begin
[03:15.82]Let the games begin
[03:17.03]
[03:17.32]Let the games begin
[03:18.57]Are you ready for it?
[03:19.74]Baby, let the games begin
[03:21.78]Let the games begin
[03:23.37]Let the games begin
[03:24.50]Are you ready for it?
[03:25.79]